C:\Users\shiva.reddy\DemoToDevOps\src\main\java\ca\gc\ircc\ta\buildingblocks\WriteJSONExample.java
C:\Users\shiva.reddy\DemoToDevOps\src\main\java\ca\gc\ircc\ta\buildingblocks\WriteTestData.java
C:\Users\shiva.reddy\DemoToDevOps\src\main\java\ca\gc\ircc\ta\buildingblocks\ReadJSONExample.java
C:\Users\shiva.reddy\DemoToDevOps\src\main\java\ca\gc\ircc\ta\buildingblocks\RestAssuredUtil.java
C:\Users\shiva.reddy\DemoToDevOps\src\main\java\ca\gc\ircc\ta\buildingblocks\KafkaUtils.java
C:\Users\shiva.reddy\DemoToDevOps\src\main\java\ca\gc\ircc\ta\buildingblocks\RemoteFolderUtils.java
C:\Users\shiva.reddy\DemoToDevOps\src\main\java\ca\gc\ircc\ta\buildingblocks\ReadTestdata.java
C:\Users\shiva.reddy\DemoToDevOps\src\main\java\ca\gc\ircc\ta\buildingblocks\RemoteConnectUtils.java
